<?xml version="1.0" encoding="UTF-8"?>
<svg width="19px" height="19px" viewBox="0 0 19 19" version="1.1" xmlns="http://www.w3.org/2000/svg" xmlns:xlink="http://www.w3.org/1999/xlink">
    <!-- Generator: Sketch 46.2 (44496) - http://www.bohemiancoding.com/sketch -->
    <title>search</title>
    <desc>Created with Sketch.</desc>
    <defs></defs>
    <g id="Page-1" stroke="none" stroke-width="1" fill="none" fill-rule="evenodd" stroke-linecap="round" stroke-linejoin="round">
        <g id="Explore" transform="translate(-332.000000, -106.000000)" stroke="#FFFFFF" stroke-width="2">
            <g id="search" transform="translate(333.000000, 107.000000)">
                <circle id="Oval" cx="7" cy="7" r="7"></circle>
                <path d="M17,17 L13,13" id="Shape"></path>
            </g>
        </g>
    </g>
</svg>